^C:\USERS\11845349\SOURCE\REPOS\GDSTRUCT_REYES\GDSTRUCT_REYES\SOURCE.CPP
C:\USERS\11845349\SOURCE\REPOS\GDSTRUCT_REYES\GDSTRUCT_REYES\DEBUG\VC141.PDB
C:\USERS\11845349\SOURCE\REPOS\GDSTRUCT_REYES\GDSTRUCT_REYES\DEBUG\VC141.IDB
C:\USERS\11845349\SOURCE\REPOS\GDSTRUCT_REYES\GDSTRUCT_REYES\DEBUG\SOURCE.OBJ
